Geography 176C
…
.pull-left[

```r
gapminder %>% 
  filter(year == 2007) %>% 
  group_by(continent) %>% 
  mutate(mp = mean(pop)) %>%   
  mutate(mle = mean(lifeExp)) %>% 
* ungroup()  %>%
  select(country, year, mp, mle) 
```

```
# A tibble: 142 x 4
   country      year         mp   mle
   <fct>       <int>      <dbl> <dbl>
 1 Afghanistan  2007 115513752.  70.7
 2 Albania      2007  19536618.  77.6
 3 Algeria      2007  17875763.  54.8
 4 Angola       2007  17875763.  54.8
 5 Argentina    2007  35954847.  73.6
 6 Australia    2007  12274974.  80.7
 7 Austria      2007  19536618.  77.6
 8 Bahrain      2007 115513752.  70.7
 9 Bangladesh   2007 115513752.  70.7
10 Belgium      2007  19536618.  77.6
# ... with 132 more rows
```
…
